EESchema Schematic File Version 2
LIBS:power
LIBS:device
LIBS:transistors
LIBS:conn
LIBS:linear
LIBS:regul
LIBS:74xx
LIBS:cmos4000
LIBS:adc-dac
LIBS:memory
LIBS:xilinx
LIBS:microcontrollers
LIBS:dsp
LIBS:microchip
LIBS:analog_switches
LIBS:motorola
LIBS:texas
LIBS:intel
LIBS:audio
LIBS:interface
LIBS:digital-audio
LIBS:philips
LIBS:display
LIBS:cypress
LIBS:siliconi
LIBS:opto
LIBS:atmel
LIBS:contrib
LIBS:valves
LIBS:LM393_sensor-cache
EELAYER 25 0
EELAYER END
$Descr A4 11693 8268
encoding utf-8
Sheet 1 1
Title ""
Date ""
Rev ""
Comp ""
Comment1 ""
Comment2 ""
Comment3 ""
Comment4 ""
$EndDescr
$Comp
L LM393 U1
U 1 1 593977CB
P 5050 2950
F 0 "U1" H 5200 3100 50  0000 C CNN
F 1 "LM393" H 5300 2800 50  0000 C CNN
F 2 "Housings_SOIC:SOIC-8_3.9x4.9mm_Pitch1.27mm" H 5050 2950 50  0001 C CNN
F 3 "" H 5050 2950 50  0001 C CNN
	1    5050 2950
	1    0    0    -1  
$EndComp
$Comp
L R R2
U 1 1 5939783C
P 3700 3550
F 0 "R2" V 3780 3550 50  0000 C CNN
F 1 "10k" V 3700 3550 50  0000 C CNN
F 2 "Resistors_SMD:R_1206_HandSoldering" V 3630 3550 50  0001 C CNN
F 3 "" H 3700 3550 50  0001 C CNN
	1    3700 3550
	1    0    0    -1  
$EndComp
$Comp
L R R1
U 1 1 593978B5
P 3250 3550
F 0 "R1" V 3330 3550 50  0000 C CNN
F 1 "100" V 3250 3550 50  0000 C CNN
F 2 "Resistors_SMD:R_1206_HandSoldering" V 3180 3550 50  0001 C CNN
F 3 "" H 3250 3550 50  0001 C CNN
	1    3250 3550
	1    0    0    -1  
$EndComp
$Comp
L LED D1
U 1 1 593978E2
P 3250 2800
F 0 "D1" H 3250 2900 50  0000 C CNN
F 1 "IR" H 3250 2700 50  0000 C CNN
F 2 "LEDs:LED_D5.0mm" H 3250 2800 50  0001 C CNN
F 3 "" H 3250 2800 50  0001 C CNN
	1    3250 2800
	0    -1   -1   0   
$EndComp
$Comp
L D_Photo D2
U 1 1 59397947
P 3700 2800
F 0 "D2" H 3720 2870 50  0000 L CNN
F 1 "D_Photo" H 3660 2690 50  0000 C CNN
F 2 "LEDs:LED_D5.0mm" H 3650 2800 50  0001 C CNN
F 3 "" H 3650 2800 50  0001 C CNN
	1    3700 2800
	0    -1   -1   0   
$EndComp
$Comp
L POT RV1
U 1 1 593979A3
P 4300 3550
F 0 "RV1" V 4125 3550 50  0000 C CNN
F 1 "10k" V 4200 3550 50  0000 C CNN
F 2 "bourns:BOURNS-3362P_pot" H 4300 3550 50  0001 C CNN
F 3 "" H 4300 3550 50  0001 C CNN
	1    4300 3550
	1    0    0    -1  
$EndComp
Wire Wire Line
	3250 3400 3250 2950
Wire Wire Line
	3700 3000 3700 3400
Wire Wire Line
	4950 2400 4950 2650
Wire Wire Line
	2850 2400 6600 2400
Wire Wire Line
	3700 2400 3700 2700
Wire Wire Line
	3250 2650 3250 2400
Connection ~ 3700 2400
Wire Wire Line
	4300 2250 4300 3400
Connection ~ 4300 2400
Wire Wire Line
	4750 3050 4550 3050
Wire Wire Line
	4550 3050 4550 3550
Wire Wire Line
	4550 3550 4450 3550
Wire Wire Line
	4750 2850 4100 2850
Wire Wire Line
	4100 2850 4100 3150
Wire Wire Line
	4100 3150 3700 3150
Connection ~ 3700 3150
Wire Wire Line
	3250 3700 3250 3850
Wire Wire Line
	2850 3850 6600 3850
Wire Wire Line
	4950 3250 4950 4000
Wire Wire Line
	3700 3700 3700 3850
Connection ~ 3700 3850
Wire Wire Line
	4300 3700 4300 3850
Connection ~ 4300 3850
$Comp
L R R3
U 1 1 59397B09
P 5750 2950
F 0 "R3" V 5830 2950 50  0000 C CNN
F 1 "330" V 5750 2950 50  0000 C CNN
F 2 "Resistors_SMD:R_1206_HandSoldering" V 5680 2950 50  0001 C CNN
F 3 "" H 5750 2950 50  0001 C CNN
	1    5750 2950
	0    1    1    0   
$EndComp
$Comp
L LED D3
U 1 1 59397B67
P 6150 3450
F 0 "D3" H 6150 3550 50  0000 C CNN
F 1 "LED" H 6150 3350 50  0000 C CNN
F 2 "LEDs:LED_D5.0mm" H 6150 3450 50  0001 C CNN
F 3 "" H 6150 3450 50  0001 C CNN
	1    6150 3450
	0    -1   -1   0   
$EndComp
Wire Wire Line
	6150 3300 6150 2950
Wire Wire Line
	5900 2950 6800 2950
Wire Wire Line
	5600 2950 5350 2950
Wire Wire Line
	6150 3850 6150 3600
Connection ~ 4950 3850
$Comp
L +5V #PWR01
U 1 1 59397DF5
P 4300 2250
F 0 "#PWR01" H 4300 2100 50  0001 C CNN
F 1 "+5V" H 4300 2390 50  0000 C CNN
F 2 "" H 4300 2250 50  0001 C CNN
F 3 "" H 4300 2250 50  0001 C CNN
	1    4300 2250
	1    0    0    -1  
$EndComp
$Comp
L GND #PWR02
U 1 1 59397E3F
P 4950 4000
F 0 "#PWR02" H 4950 3750 50  0001 C CNN
F 1 "GND" H 4950 3850 50  0000 C CNN
F 2 "" H 4950 4000 50  0001 C CNN
F 3 "" H 4950 4000 50  0001 C CNN
	1    4950 4000
	1    0    0    -1  
$EndComp
$Comp
L R R4
U 1 1 59397F7A
P 2850 3550
F 0 "R4" V 2930 3550 50  0000 C CNN
F 1 "100" V 2850 3550 50  0000 C CNN
F 2 "Resistors_SMD:R_1206_HandSoldering" V 2780 3550 50  0001 C CNN
F 3 "" H 2850 3550 50  0001 C CNN
	1    2850 3550
	1    0    0    -1  
$EndComp
$Comp
L LED D4
U 1 1 593980D2
P 2850 2800
F 0 "D4" H 2850 2900 50  0000 C CNN
F 1 "5V_LED" H 2850 2700 50  0000 C CNN
F 2 "LEDs:LED_D5.0mm" H 2850 2800 50  0001 C CNN
F 3 "" H 2850 2800 50  0001 C CNN
	1    2850 2800
	0    -1   -1   0   
$EndComp
$Comp
L CONN_01X03 J1
U 1 1 5939839B
P 7000 2950
F 0 "J1" H 7000 3150 50  0000 C CNN
F 1 "CONN_01X03" V 7100 2950 50  0000 C CNN
F 2 "Connectors:Fan_Pin_Header_Straight_1x03" H 7000 2950 50  0001 C CNN
F 3 "" H 7000 2950 50  0001 C CNN
	1    7000 2950
	1    0    0    -1  
$EndComp
Connection ~ 6150 2950
Wire Wire Line
	6800 3050 6600 3050
Wire Wire Line
	6600 3050 6600 3850
Connection ~ 6150 3850
Wire Wire Line
	6800 2850 6600 2850
Wire Wire Line
	6600 2850 6600 2400
Connection ~ 4950 2400
$Comp
L LM393 U1
U 2 1 59398FBC
P 9250 2000
F 0 "U1" H 9400 2150 50  0000 C CNN
F 1 "LM393" H 9500 1850 50  0000 C CNN
F 2 "Housings_SOIC:SOIC-8_3.9x4.9mm_Pitch1.27mm" H 9250 2000 50  0001 C CNN
F 3 "" H 9250 2000 50  0001 C CNN
	2    9250 2000
	1    0    0    -1  
$EndComp
Wire Wire Line
	2850 2400 2850 2650
Connection ~ 3250 2400
Wire Wire Line
	2850 2950 2850 3400
Wire Wire Line
	2850 3700 2850 3850
Connection ~ 3250 3850
$EndSCHEMATC
